…
### 4.*Is the distribution of different types of trees related to their geographical location or neighborhood of cultivation?*

**Summarizing:** I will choose option 2 and compute the number of
observations for the variable `genre_name`, and explore its potential
relationship with geographical location and neighborhood.

``` r
#compute the number of observations for the variable `genre_name` with different neighbourhood_name
answer1.25 <- vancouver_trees %>%
  group_by(neighbourhood_name, genus_name) %>%
  count()
answer1.25
```

    ## # A tibble: 1,303 × 3
    ## # Groups:   neighbourhood_name, genus_name [1,303]
    ##    neighbourhood_name genus_name      n
    ##    <chr>              <chr>       <int>
    ##  1 ARBUTUS-RIDGE      ABIES          18
    ##  2 ARBUTUS-RIDGE      ACER          867
    ##  3 ARBUTUS-RIDGE      AESCULUS      134
    ##  4 ARBUTUS-RIDGE      AMELANCHIER    19
    ##  5 ARBUTUS-RIDGE      BETULA         77
    ##  6 ARBUTUS-RIDGE      CALOCEDRUS      1
    ##  7 ARBUTUS-RIDGE      CARPINUS      167
    ##  8 ARBUTUS-RIDGE      CATALPA         5
    ##  9 ARBUTUS-RIDGE      CEDRUS         11
    ## 10 ARBUTUS-RIDGE      CELTIS          4
    ## # ℹ 1,293 more rows
…
Due to the fact that the dataset *vancouver_trees* contains more than 8
variables, I will pick 8 out of them and do further explanation.

``` r
answer2.11 <- vancouver_trees %>%
  reframe(tree_id, civic_number, std_street, genus_name, species_name, common_name, assigned, root_barrier)
answer2.11
```

    ## # A tibble: 146,611 × 8
    ##    tree_id civic_number std_street  genus_name species_name common_name assigned
    ##      <dbl>        <dbl> <chr>       <chr>      <chr>        <chr>       <chr>   
    ##  1  149556          494 W 58TH AV   ULMUS      AMERICANA    BRANDON ELM N       
    ##  2  149563          450 W 58TH AV   ZELKOVA    SERRATA      JAPANESE Z… N       
    ##  3  149579         4994 WINDSOR ST  STYRAX     JAPONICA     JAPANESE S… N       
    ##  4  149590          858 E 39TH AV   FRAXINUS   AMERICANA    AUTUMN APP… Y       
    ##  5  149604         5032 WINDSOR ST  ACER       CAMPESTRE    HEDGE MAPLE N       
    ##  6  149616          585 W 61ST AV   PYRUS      CALLERYANA   CHANTICLEE… N       
    ##  7  149617         4909 SHERBROOKE… ACER       PLATANOIDES  COLUMNAR N… N       
    ##  8  149618         4925 SHERBROOKE… ACER       PLATANOIDES  COLUMNAR N… N       
    ##  9  149619         4969 SHERBROOKE… ACER       PLATANOIDES  COLUMNAR N… N       
    ## 10  149625          720 E 39TH AV   FRAXINUS   AMERICANA    AUTUMN APP… N       
    ## # ℹ 146,601 more rows
    ## # ℹ 1 more variable: root_barrier <chr>
…
**Process of Untidy**

In order to untidy my data, I try to merge or combine relative columns.
In this section, I will merge `genus_name` and `species_name` to a
single column.

``` r
answer2.12 <- answer2.11 %>% 
  pivot_longer(cols = c(genus_name, species_name), names_to = "species_or_genus", values_to = "value")
answer2.12
```

    ## # A tibble: 293,222 × 8
    ##    tree_id civic_number std_street common_name         assigned root_barrier
    ##      <dbl>        <dbl> <chr>      <chr>               <chr>    <chr>       
    ##  1  149556          494 W 58TH AV  BRANDON ELM         N        N           
    ##  2  149556          494 W 58TH AV  BRANDON ELM         N        N           
    ##  3  149563          450 W 58TH AV  JAPANESE ZELKOVA    N        N           
    ##  4  149563          450 W 58TH AV  JAPANESE ZELKOVA    N        N           
    ##  5  149579         4994 WINDSOR ST JAPANESE SNOWBELL   N        N           
    ##  6  149579         4994 WINDSOR ST JAPANESE SNOWBELL   N        N           
    ##  7  149590          858 E 39TH AV  AUTUMN APPLAUSE ASH Y        N           
    ##  8  149590          858 E 39TH AV  AUTUMN APPLAUSE ASH Y        N           
    ##  9  149604         5032 WINDSOR ST HEDGE MAPLE         N        N           
    ## 10  149604         5032 WINDSOR ST HEDGE MAPLE         N        N           
    ## # ℹ 293,212 more rows
    ## # ℹ 2 more variables: species_or_genus <chr>, value <chr>

**Tidy Back**

``` r
answer2.13 <- answer2.12 %>% 
  pivot_wider(names_from = species_or_genus, values_from = value)
answer2.13
```

    ## # A tibble: 146,611 × 8
    ##    tree_id civic_number std_street  common_name assigned root_barrier genus_name
    ##      <dbl>        <dbl> <chr>       <chr>       <chr>    <chr>        <chr>     
    ##  1  149556          494 W 58TH AV   BRANDON ELM N        N            ULMUS     
    ##  2  149563          450 W 58TH AV   JAPANESE Z… N        N            ZELKOVA   
    ##  3  149579         4994 WINDSOR ST  JAPANESE S… N        N            STYRAX    
    ##  4  149590          858 E 39TH AV   AUTUMN APP… Y        N            FRAXINUS  
    ##  5  149604         5032 WINDSOR ST  HEDGE MAPLE N        N            ACER      
    ##  6  149616          585 W 61ST AV   CHANTICLEE… N        N            PYRUS     
    ##  7  149617         4909 SHERBROOKE… COLUMNAR N… N        N            ACER      
    ##  8  149618         4925 SHERBROOKE… COLUMNAR N… N        N            ACER      
    ##  9  149619         4969 SHERBROOKE… COLUMNAR N… N        N            ACER      
    ## 10  149625          720 E 39TH AV   AUTUMN APP… N        N            FRAXINUS  
    ## # ℹ 146,601 more rows
    ## # ℹ 1 more variable: species_name <chr>
…
    ## `summarise()` has grouped output by 'curb'. You can override using the
    ## `.groups` argument.

``` r
answer2.31
```

    ## # A tibble: 97 × 3
    ##    genus_name      N     Y
    ##    <chr>       <dbl> <dbl>
    ##  1 ABIES       14.6  12.4 
    ##  2 ACER        11.7  10.5 
    ##  3 AESCULUS    25.5  23.5 
    ##  4 AILANTHUS   20    14.5 
    ##  5 ALNUS       17.1  17.8 
    ##  6 AMELANCHIER  3.13  3.24
    ##  7 ARAUCARIA    3    13.5 
    ##  8 ARBUTUS     18.7  18.3 
    ##  9 BETULA      17.3  17.9 
    ## 10 CALOCEDRUS   9    11.4 
    ## # ℹ 87 more rows
…
### 2. *What is the relationship between the diameter of a tree and its age? Does genus affect trees’ diameter?*

In this case, I will use group_by(), summarise(), mean(), median()
variance() and range() to explore potential relationship between trees’
genus and diameter.

``` r
answer2.33 <- vancouver_trees %>%
  group_by(genus_name) %>%
  summarise(mean(diameter), median(diameter), var(diameter), diff(range(diameter)))
answer2.33
```

    ## # A tibble: 97 × 5
    ##    genus_name  `mean(diameter)` `median(diameter)` `var(diameter)`
    ##    <chr>                  <dbl>              <dbl>           <dbl>
    ##  1 ABIES                  12.9               12              94.4 
    ##  2 ACER                   10.6                8              76.8 
    ##  3 AESCULUS               23.7               25              91.5 
    ##  4 AILANTHUS              15.9               19.5            74.7 
    ##  5 ALBIZIA                 6                  6              NA   
    ##  6 ALNUS                  17.5               17.5            79.9 
    ##  7 AMELANCHIER             3.21               3               3.22
    ##  8 ARALIA                  6.81               6.12           15.4 
    ##  9 ARAUCARIA              11.4                8.5            98.4 
    ## 10 ARBUTUS                18.4               17.5           114.  
    ## # ℹ 87 more rows
    ## # ℹ 1 more variable: `diff(range(diameter))` <dbl>
…
    ## # A tibble: 2 × 5
    ##   term          estimate  std.error statistic p.value
    ##   <chr>            <dbl>      <dbl>     <dbl>   <dbl>
    ## 1 (Intercept)  15.4      0.0777          198.       0
    ## 2 date_planted -0.000771 0.00000607     -127.       0

``` r
answer3.13 <- augment(answer3.11)
answer3.13
```

    ## # A tibble: 70,063 × 9
    ##    .rownames diameter date_planted .fitted .resid      .hat .sigma     .cooksd
    ##    <chr>        <dbl> <date>         <dbl>  <dbl>     <dbl>  <dbl>       <dbl>
    ##  1 1            10    1999-01-13      7.18  2.82  0.0000214   4.34 0.00000451 
    ##  2 2            10    1996-05-31      7.92  2.08  0.0000303   4.34 0.00000348 
    ##  3 3             4    1993-11-22      8.63 -4.63  0.0000423   4.34 0.0000241  
    ##  4 4            18    1996-04-29      7.94 10.1   0.0000307   4.34 0.0000823  
    ##  5 5             9    1993-12-17      8.61  0.390 0.0000419   4.34 0.000000169
    ##  6 7            15    1993-12-16      8.61  6.39  0.0000420   4.34 0.0000454  
    ##  7 8            14    1993-12-16      8.61  5.39  0.0000420   4.34 0.0000323  
    ##  8 9            16    1993-12-16      8.61  7.39  0.0000420   4.34 0.0000608  
    ##  9 10            7.5  1993-12-03      8.62 -1.12  0.0000422   4.34 0.00000141 
    ## 10 11            7.75 1993-12-03      8.62 -0.871 0.0000422   4.34 0.000000849
    ## # ℹ 70,053 more rows
    ## # ℹ 1 more variable: .std.resid <dbl>
…
